Project 1: Exploratory Data Analysis
…
both %>% arrange(desc(Violent_crime))

## # A tibble: 50 x 19
##    state Population Violent_crime Murder_manslaug… Rape_revdef Rape_legdef
##    <chr>      <dbl>         <dbl>            <dbl>       <dbl>       <dbl>
##  1 Cali…   39144818        166883             1861       12811        9387
##  2 Texas   27469114        113227             1316       12250        8925
##  3 Flor…   20271272         93626             1041        7553        5430
##  4 New …   19795791         75165              609        6074        4389
##  5 Illi…   12859995         49354              744        4821        3549
##  6 Mich…    9922576         41231              571        6450        4163
##  7 Tenn…    6600299         40400              406        2676        1966
##  8 Penn…   12802503         40339              658        4305        3122
##  9 Geor…   10214860         38643              615        3224        2296
## 10 Nort…   10042802         34852              517        2684        1939
## # … with 40 more rows, and 13 more variables: Robbery <dbl>,
## #   Aggravated_assault <dbl>, Property_crime <dbl>, Burglary <dbl>,
## #   Larceny_theft <dbl>, Car_theft <dbl>, adults <dbl>, men <dbl>, women <dbl>,
## #   men_working <dbl>, women_working <dbl>, men_nonworking <dbl>,
## #   women_nonworking <dbl>

both%>% select(Population, Violent_crime)

## # A tibble: 50 x 2
##    Population Violent_crime
##         <dbl>         <dbl>
##  1    4858979         22952
##  2     738432          5392
##  3    6828065         28012
##  4    2978204         15526
##  5   39144818        166883
##  6    5456574         17515
##  7    3590886          7845
##  8     945934          4720
##  9     672228          8531
## 10   20271272         93626
## # … with 40 more rows

both %>% mutate(violcrimebypop=(Violent_crime/Population))%>%select(state, violcrimebypop)

## # A tibble: 50 x 2
##    state                violcrimebypop
##    <chr>                         <dbl>
##  1 Alabama                     0.00472
##  2 Alaska                      0.00730
##  3 Arizona                     0.00410
##  4 Arkansas                    0.00521
##  5 California                  0.00426
##  6 Colorado                    0.00321
##  7 Connecticut                 0.00218
##  8 Delaware                    0.00499
##  9 District of Columbia        0.0127 
## 10 Florida                     0.00462
## # … with 40 more rows
…
kable(mensize) %>%
  kable_styling(bootstrap_options = c("striped", "hover","condensed"))

kable(women) %>%
  kable_styling(bootstrap_options = c("striped", "hover","condensed"))

kable(womensize) %>%
  kable_styling(bootstrap_options = c("striped", "hover","condensed"))

Tidying: Rearranging Wide/Long

both1<-both%>%pivot_wider(names_from="stsize", values_from="Population")
both1 %>% pivot_longer(cols=c("medium.st","small.st","large.st"),names_to="stsize",values_to="Population")%>%na.omit()

## # A tibble: 46 x 23
##    state Violent_crime Murder_manslaug… Rape_revdef Rape_legdef Robbery
##    <chr>         <dbl>            <dbl>       <dbl>       <dbl>   <dbl>
##  1 Alab…         22952              348        2039        1456    4611
##  2 Alas…          5392               59         901         650     761
##  3 Ariz…         28012              309        3108        2294    6360
##  4 Arka…         15526              181        1931        1300    2098
##  5 Cali…        166883             1861       12811        9387   52862
##  6 Colo…         17515              176        3257        2377    3323
##  7 Conn…          7845              117         773         582    2892
##  8 Dela…          4720               63         341         243    1235
##  9 Dist…          8531              162         494         366    3742
## 10 Flor…         93626             1041        7553        5430   21137
## # … with 36 more rows, and 17 more variables: Aggravated_assault <dbl>,
## #   Property_crime <dbl>, Burglary <dbl>, Larceny_theft <dbl>, Car_theft <dbl>,
## #   adults <dbl>, men <dbl>, women <dbl>, men_working <dbl>,
## #   women_working <dbl>, men_nonworking <dbl>, women_nonworking <dbl>,
## #   violcrimebypop <dbl>, murbypop <dbl>, robbypop <dbl>, stsize <chr>,
## #   Population <dbl>
…
